{
  "url": "https://github.com/nixos/nixpkgs-channels.git",
  "rev": "a4c4cbb613cc3e15186de0fdb04082fa7e38f6a0",
  "date": "2018-11-08T14:12:28+01:00",
  "sha256": "1lagfycy2lvfc8cdxk98dz2rxjlrbmv9hj42x0x40sy66bck1w0y",
  "fetchSubmodules": true
}
